{
  "development": {
    "username": "root",
    "password": null,
    "database": "book",
    "host": "127.0.0.1",
    "dialect": "mysql",
    "operatorsAliases": false
  },
  "test": {
    "username": "root",
    "password": null,
    "database": "book_test",
    "host": "127.0.0.1",
    "dialect": "mysql",
    "operatorsAliases": false
  },
  "production": {
    "username": "root",
    "password": null,
    "database": "book_production",
    "host": "127.0.0.1",
    "dialect": "mysql",
    "operatorsAliases": false
  }
}
